bo/gob/uif/tests/siso/TestSiso.class
bo/gob/uif/tests/sicod/TestSicod.class
bo/gob/uif/tests/aduana/TestAduana.class
bo/gob/uif/tests/fundempresa/TestFundempresa.class
bo/gob/uif/tests/impuestos/TestImpuestos.class
bo/gob/uif/tests/segip/TestSegip.class
bo/gob/uif/tests/inra/TestInra.class
